
			MOVI 6,0x0000
			NOP
            MOVI 5,0x0000
			NOP
			
			MOVI 2,0x8000
			NOP
			NAND 7,5,2
			NAND 7,7,7
			BEQ 7,0,endif
			
			MOVI 7,1
			NOP
			
endif:		add 6,6,6
			add 6,6,7
			
			add 5,5,5

end: 		halt