			MOVI 1,0
			MOVI 2,0
			MOVI 5,0x8000
			NOP
			NAND 7,5,2
			NAND 7,7,7
			BEQ 7,0,notFirst
			BEQ 0,0,First
notFirst:	NAND 7,5,1
			NAND 7,7,7
			BEQ 7,0,endif
			BEQ 0,0,over	
First:		NAND 7,5,1
			NAND 7,7,7
			BEQ 7,0,over
			add 3,1,2
			MOVI 4,1
			BEQ 0,0,end
over:		add 3,1,2
			NAND 7,5,3
			NAND 7,7,7
			MOVI 5,0x8000
			NOP
			BEQ 7,5,end
			MOVI 4,1
			NOP
			BEQ 0,0,end
endif:		add 3,1,2
end: 		halt